[
  {
    "name": "sphères",
    "street": "Hardturmstrasse 66",
    "city": "Zurich",
    "zip": "8005",
    "url": "https://spheres.cc/",
    "pos": {"lat":47.391984,"lng":8.518758}
  },
  {
    "name": "Vicafe Gerold",
    "street": "Geroldstrasse 17",
    "city": "Zurich",
    "zip": "8005",
    "url": "https://vicafe.ch/",
    "pos": {"lat":47.385601,"lng":8.519657}
  },
  {
    "name": "Mame",
    "street": "Josefstrasse 160",
    "city": "Zurich",
    "zip": "8005",
    "url": "https://mame-coffee.com/",
    "pos": {"lat":47.384961,"lng":8.527378}
  }  
]
